..............
----------------------------------------------------------------------
Ran 14 tests in 0.137s

OK
Name             Stmts   Miss Branch BrPart  Cover   Missing
------------------------------------------------------------
Collatz.py          30      0     12      0   100%
TestCollatz.py      65      0      0      0   100%
------------------------------------------------------------
TOTAL               95      0     12      0   100%
